…
    ## Joining, by = "pathway"
    ## Joining, by = "pathway"

``` r
humann2_pathway_alpha_div_with_n_samples %>%
  filter(n_samples == 10) %>%
  arrange(mean_alpha_div) %>%
  print(n = 20)
```

    ## # A tibble: 121 x 5
    ##    pathway           n_samples mean_alpha_div median_alpha_dv num_organisms
    ##    <chr>                 <int>          <dbl>           <dbl>         <int>
    ##  1 ANAEROFRUCAT-PWY~        10        0               0                   1
    ##  2 DENOVOPURINE2-PW~        10        0               0                   1
    ##  3 GLUCONEO-PWY: gl~        10        0               0                   2
    ##  4 HEXITOLDEGSUPER-~        10        0               0                   1
    ##  5 P4-PWY: superpat~        10        0               0                   1
    ##  6 PWY-5154: L-argi~        10        0               0                   1
    ##  7 PWY-5265: peptid~        10        0               0                   1
    ##  8 PWY-6270: isopre~        10        0               0                   2
    ##  9 PWY66-389: phyto~        10        0               0                   1
    ## 10 PYRIDOXSYN-PWY: ~        10        0               0                   2
    ## 11 THISYNARA-PWY: s~        10        0               0                   1
    ## 12 GLYCOLYSIS-E-D: ~        10        0.00106         0                   2
    ## 13 GLYCOLYSIS: glyc~        10        0.00122         0                   3
    ## 14 PWY-841: superpa~        10        0.00212         0                   3
    ## 15 PWY0-162: superp~        10        0.00428         0                   6
    ## 16 ASPASN-PWY: supe~        10        0.00786         0.00101             5
    ## 17 NONMEVIPP-PWY: m~        10        0.0114          0                   6
    ## 18 PWY-7388: octano~        10        0.0119          0                   7
    ## 19 PWY66-422: D-gal~        10        0.0142          0                   5
    ## 20 PWY-7234: inosin~        10        0.0191          0                   8
    ## # ... with 101 more rows

``` r
# PWY0-162 as an example of low diversity pathway

humann2_pathway_alpha_div_with_n_samples %>%
  filter(n_samples == 10) %>%
  arrange(-mean_alpha_div)
```

    ## # A tibble: 121 x 5
    ##    pathway           n_samples mean_alpha_div median_alpha_dv num_organisms
    ##    <chr>                 <int>          <dbl>           <dbl>         <int>
    ##  1 PWY-7219: adenos~        10          0.510           0.527            34
    ##  2 PWY-7221: guanos~        10          0.465           0.475            28
    ##  3 PWY-7220: adenos~        10          0.418           0.480            17
    ##  4 PWY-7222: guanos~        10          0.418           0.480            17
    ##  5 PWY-6386: UDP-N-~        10          0.381           0.480            19
    ##  6 PWY-6126: superp~        10          0.380           0.486            15
    ##  7 PWY-6122: 5-amin~        10          0.379           0.464            26
    ##  8 PWY-6277: superp~        10          0.379           0.464            26
    ##  9 PWY-7208: superp~        10          0.376           0.441            19
    ## 10 PWY-7228: superp~        10          0.373           0.424            21
    ## # ... with 111 more rows
…
